{
  "defaultSettings": {
    "columnA" : "country",
    "columnB": "value"
  },
  "sampleData": [
    {
      "country": "JP",
      "value": 1
    },
    {
      "country": "CN",
      "value": 2
    },
    {
      "country": "EN",
      "value": 8
    },
    {
      "country": "JP",
      "value": 42
    },
    {
      "country": "CN",
      "value": 24
    },
    {
      "country": "EN",
      "value": 82
    }
  ],
  "settingSchema":[
    {
    "type" : "key",
    "name" : "columnA",
    "help" : "A table column."
  },
  {
    "type" : "key",
    "name" : "columnB",
    "help" : "Another table column."
  }
  ]
}